{
    "templateData": {
        "type": "object",
        "properties": {
            "item": {
                "runtimeMinutes": "",
                "overview": "step here",
                "materialNames": "No materials",
                "videoOverlaySource": "",
                "primaryImageSource": "https://www.accuquilt.com/media/catalog/product/cache/2cfe48ce00c2b8cba52a90394e259b9f/p/q/pq11924-web.jpg",
                "type": "",
                "logoImageSource": "https://www.accuquilt.com/media/logo/websites/1/accuquilt-logo-no-tagline-4c-948x176-NEW.png",
                "videoBackdropSource": "https://sample-videos.com/video123/mp4/720/big_buck_bunny_720p_1mb.mp4",
                "premiereDate": "2019",
                "officialRating": "PG-13",
                "genres": "Adventure, Science Fiction, Action",
                "patternName": "Avengers: Endgame",
                "backdropImageSource": "https://i.ibb.co/CJFwnnG/Alexa-Skill-Background-480x480.jpg",
                "backgroundSource": "https://i.ibb.co/37bvXV6/Alexa-Skill-Background-1280x800.jpg",
                "endTime": "Ends at: 1:23 AM",
                "id": 34516
            },
            "similarItems": [
                {
                    "thumbImageSource": "https://www.accuquilt.com/media/catalog/product/cache/2cfe48ce00c2b8cba52a90394e259b9f/p/q/pq11924-web.jpg",
                    "id": 53799
                },
                {
                    "thumbImageSource": "https://www.accuquilt.com/media/catalog/product/cache/2cfe48ce00c2b8cba52a90394e259b9f/p/q/pq11923-sedona-web.jpg",
                    "id": 53798
                }
            ],
            "url": "https://theater.unityhome.online"
        }
    },
    "buttonExampleData": {
        "voiceHeading": "Voice-forward examples",
        "touchHeading": "Touch-forward examples",
        "buttons": [
            {
                "buttonText": "Next",
                "id": "containedExample",
                "buttonStyle": "contained"
            },
            {
                "buttonText": "Previous",
                "id": "outlinedExample",
                "buttonStyle": "ingress"
            },
            {
                "buttonText": "Repeat",
                "id": "ingressExample",
                "buttonStyle": "contained"
            }
        ]
    }
}