{
  "manifest": {
    "publishingInformation": {
      "locales": {
        "en-GB": {
          "summary": "If you just started sewing, we\u0027ve got tips, tutorials, videos and more to help you get started confidently.",
          "examplePhrases": [
            "Steps to make Sea Life Medley wall hanging pattern",
            "How do I make a Sea Life Medley wall hanging pattern",
            "Alexa, open Go Quilt"
          ],
          "keywords": [
            "patterns",
            "quilt",
            "arts",
            "crafts"
          ],
          "name": "GO! Quilt",
          "description": "GO! Quilt is a FREE digital quilt project and pattern customizer that allows you to test drive fabrics and colors before you even cut your fabric. Use preloaded colors and designer fabrics or upload your own stash! We\u0027ve got over 1,400 patterns just waiting for you!\n\nTo start, just say \"Alexa, launch Go Quilt\" or \"Alexa, open Go Quilt\" to get a response\".\n\nAt any time, you can stop by saying \"Alexa, stop\"",
          "smallIconUri": "file://assets/images/en-GB_smallIconUri.png",
          "largeIconUri": "file://assets/images/en-GB_largeIconUri.png"
        }
      },
      "automaticDistribution": {
        "isActive": false
      },
      "isAvailableWorldwide": true,
      "testingInstructions": "1. Hub landscape large is required to test this skill.\n2. Just open the skill, and ask \"How do I make a Sea Life Medley wall hanging\", and select one pattern from by saying, \"1\" or the serial number of the pattern you want to check, once selected a pattern, it will take you to the process of steps, you can then ask Alexa for next step by saying \"Next\", or navigate to previous steps by saying \"Previous\" or \"Repeat\" until the process come to an end.",
      "category": "EDUCATION_AND_REFERENCE",
      "distributionCountries": []
    },
    "apis": {
      "custom": {
        "endpoint": {
          "uri": "arn:aws:lambda:us-east-1:766259825002:function:36a5da96-4623-410d-8e09-c8fc981c0681:Release_0"
        },
        "interfaces": [
          {
            "supportedViewports": [
              {
                "minHeight": 540,
                "mode": "TV",
                "shape": "RECTANGLE",
                "maxHeight": 540,
                "minWidth": 960,
                "maxWidth": 960
              },
              {
                "minHeight": 100,
                "mode": "HUB",
                "shape": "ROUND",
                "maxHeight": 599,
                "minWidth": 100,
                "maxWidth": 599
              },
              {
                "minHeight": 600,
                "mode": "HUB",
                "shape": "RECTANGLE",
                "maxHeight": 959,
                "minWidth": 960,
                "maxWidth": 1279
              },
              {
                "minHeight": 600,
                "mode": "HUB",
                "shape": "RECTANGLE",
                "maxHeight": 1279,
                "minWidth": 1280,
                "maxWidth": 1920
              },
              {
                "minHeight": 100,
                "mode": "HUB",
                "shape": "RECTANGLE",
                "maxHeight": 599,
                "minWidth": 960,
                "maxWidth": 1279
              },
              {
                "minHeight": 320,
                "mode": "MOBILE",
                "shape": "RECTANGLE",
                "maxHeight": 1920,
                "minWidth": 600,
                "maxWidth": 959
              },
              {
                "minHeight": 320,
                "mode": "MOBILE",
                "shape": "RECTANGLE",
                "maxHeight": 1920,
                "minWidth": 960,
                "maxWidth": 1279
              },
              {
                "minHeight": 320,
                "mode": "MOBILE",
                "shape": "RECTANGLE",
                "maxHeight": 1920,
                "minWidth": 1280,
                "maxWidth": 1920
              }
            ],
            "type": "ALEXA_PRESENTATION_APL"
          }
        ],
        "regions": {
          "EU": {
            "endpoint": {
              "uri": "arn:aws:lambda:eu-west-1:766259825002:function:36a5da96-4623-410d-8e09-c8fc981c0681:Release_0"
            }
          },
          "NA": {
            "endpoint": {
              "uri": "arn:aws:lambda:us-east-1:766259825002:function:36a5da96-4623-410d-8e09-c8fc981c0681:Release_0"
            }
          },
          "FE": {
            "endpoint": {
              "uri": "arn:aws:lambda:us-west-2:766259825002:function:36a5da96-4623-410d-8e09-c8fc981c0681:Release_0"
            }
          }
        }
      }
    },
    "manifestVersion": "1.0",
    "privacyAndCompliance": {
      "allowsPurchases": false,
      "locales": {
        "en-GB": {}
      },
      "containsAds": false,
      "isExportCompliant": true,
      "isChildDirected": false,
      "usesPersonalInfo": false
    }
  }
}